%YAML 1.1
%TAG !u! tag:unity3d.com,2011:
--- !u!21 &2100000
Material:
  serializedVersion: 8
  m_ObjectHideFlags: 0
  m_CorrespondingSourceObject: {fileID: 0}
  m_PrefabInstance: {fileID: 0}
  m_PrefabAsset: {fileID: 0}
  m_Name: RefractionNormalMap
  m_Shader: {fileID: -6465566751694194690, guid: 7366d71e5a2bf9948bb87ddf56789c6f,
    type: 3}
  m_Parent: {fileID: 0}
  m_ModifiedSerializedProperties: 0
  m_ValidKeywords:
  - _SURFACE_TYPE_TRANSPARENT
  m_InvalidKeywords: []
  m_LightmapFlags: 4
  m_EnableInstancingVariants: 0
  m_DoubleSidedGI: 0
  m_CustomRenderQueue: -1
  stringTagMap:
    RenderType: Transparent
  disabledShaderPasses:
  - DepthOnly
  m_LockedProperties: 
  m_SavedProperties:
    serializedVersion: 3
    m_TexEnvs:
    - _NormalMap:
        m_Texture: {fileID: 2800000, guid: c264b5958a561a14494bccf472b2b39c, type: 3}
        m_Scale: {x: 1.54, y: 1.93}
        m_Offset: {x: -0.01, y: 0}
    - unity_Lightmaps:
        m_Texture: {fileID: 0}
        m_Scale: {x: 1, y: 1}
        m_Offset: {x: 0, y: 0}
    - unity_LightmapsInd:
        m_Texture: {fileID: 0}
        m_Scale: {x: 1, y: 1}
        m_Offset: {x: 0, y: 0}
    - unity_ShadowMasks:
        m_Texture: {fileID: 0}
        m_Scale: {x: 1, y: 1}
        m_Offset: {x: 0, y: 0}
    m_Ints: []
    m_Floats:
    - _AlphaClip: 0
    - _AlphaToMask: 0
    - _Blend: 0
    - _CastShadows: 1
    - _Cull: 2
    - _DstBlend: 10
    - _Float: 19.59
    - _QueueControl: 0
    - _QueueOffset: 0
    - _RefractionStrength: 572.67
    - _SrcBlend: 5
    - _Surface: 1
    - _ZTest: 4
    - _ZWrite: 0
    - _ZWriteControl: 0
    m_Colors:
    - _RefractAmount: {r: 0, g: 0, b: 0, a: 0}
    - _RefractionAmount: {r: 127.98, g: 0, b: 0, a: 0}
    - _RefractionColor: {r: 0.27585334, g: 0.10980392, b: 0.54901963, a: 0}
    - _Refraction_Strength: {r: 0, g: 0, b: 0, a: 0}
  m_BuildTextureStacks: []
--- !u!114 &7273506275309521358
MonoBehaviour:
  m_ObjectHideFlags: 11
  m_CorrespondingSourceObject: {fileID: 0}
  m_PrefabInstance: {fileID: 0}
  m_PrefabAsset: {fileID: 0}
  m_GameObject: {fileID: 0}
  m_Enabled: 1
  m_EditorHideFlags: 0
  m_Script: {fileID: 11500000, guid: d0353a89b1f911e48b9e16bdc9f2e058, type: 3}
  m_Name: 
  m_EditorClassIdentifier: 
  version: 7
